\relax 
\providecommand\hyper@newdestlabel[2]{}
\providecommand\BKM@entry[2]{}
\providecommand\HyperFirstAtBeginDocument{\AtBeginDocument}
\HyperFirstAtBeginDocument{\ifx\hyper@anchor\@undefined
\global\let\oldcontentsline\contentsline
\gdef\contentsline#1#2#3#4{\oldcontentsline{#1}{#2}{#3}}
\global\let\oldnewlabel\newlabel
\gdef\newlabel#1#2{\newlabelxx{#1}#2}
\gdef\newlabelxx#1#2#3#4#5#6{\oldnewlabel{#1}{{#2}{#3}}}
\AtEndDocument{\ifx\hyper@anchor\@undefined
\let\contentsline\oldcontentsline
\let\newlabel\oldnewlabel
\fi}
\fi}
\global\let\hyper@last\relax 
\gdef\HyperFirstAtBeginDocument#1{#1}
\providecommand\HyField@AuxAddToFields[1]{}
\providecommand\HyField@AuxAddToCoFields[2]{}
\catcode `"\active 
\bibstyle{biblatex}
\bibdata{SeminararbeitEngine-blx,literature}
\citation{biblatex-control}
\abx@aux@sortscheme{nty}
\abx@aux@refcontext{nty/global/}
\@writefile{toc}{\boolfalse {citerequest}\boolfalse {citetracker}\boolfalse {pagetracker}\boolfalse {backtracker}\relax }
\@writefile{lof}{\boolfalse {citerequest}\boolfalse {citetracker}\boolfalse {pagetracker}\boolfalse {backtracker}\relax }
\@writefile{lot}{\boolfalse {citerequest}\boolfalse {citetracker}\boolfalse {pagetracker}\boolfalse {backtracker}\relax }
\@writefile{lof}{\defcounter {refsection}{0}\relax }\@writefile{lof}{\deactivateaddvspace  }
\@writefile{lot}{\defcounter {refsection}{0}\relax }\@writefile{lot}{\deactivateaddvspace  }
\select@language{ngerman}
\@writefile{toc}{\defcounter {refsection}{0}\relax }\@writefile{toc}{\select@language{ngerman}}
\@writefile{lof}{\defcounter {refsection}{0}\relax }\@writefile{lof}{\select@language{ngerman}}
\@writefile{lot}{\defcounter {refsection}{0}\relax }\@writefile{lot}{\select@language{ngerman}}
\BKM@entry{id=1,dest={73656374696F6E2E31},srcline={50}}{312045696E6C656974756E67}
\BKM@entry{id=2,dest={73656374696F6E2E32},srcline={54}}{3220584E41}
\citation{Reed.2011}
\abx@aux@cite{Reed.2011}
\abx@aux@segm{0}{0}{Reed.2011}
\@writefile{toc}{\defcounter {refsection}{0}\relax }\@writefile{toc}{\contentsline {section}{\numberline {1}Einleitung}{3}{section.1}}
\@writefile{toc}{\defcounter {refsection}{0}\relax }\@writefile{toc}{\contentsline {section}{\numberline {2}XNA}{3}{section.2}}
\abx@aux@fnpage{1}{3}
\BKM@entry{id=3,dest={73756273656374696F6E2E322E31},srcline={85}}{322E3120506172616C6C656C69736965727465732052656E646572696E67}
\citation{Reed.2011}
\abx@aux@segm{0}{0}{Reed.2011}
\citation{Reed.2011}
\abx@aux@segm{0}{0}{Reed.2011}
\citation{Reed.2011}
\abx@aux@segm{0}{0}{Reed.2011}
\newlabel{lstng:property}{{1}{4}{Property}{lstlisting.1}{}}
\@writefile{lol}{\defcounter {refsection}{0}\relax }\@writefile{lol}{\contentsline {lstlisting}{\numberline {1}Property}{4}{lstlisting.1}}
\@writefile{toc}{\defcounter {refsection}{0}\relax }\@writefile{toc}{\contentsline {subsection}{\numberline {2.1}Parallelisiertes Rendering}{4}{subsection.2.1}}
\abx@aux@fnpage{2}{4}
\BKM@entry{id=4,dest={73656374696F6E2E33},srcline={102}}{33205A656E7472616C6520456C656D656E74652065696E657220324420456E67696E65}
\@writefile{toc}{\defcounter {refsection}{0}\relax }\@writefile{toc}{\contentsline {section}{\numberline {3}Zentrale Elemente einer 2D Engine}{5}{section.3}}
\abx@aux@fnpage{3}{5}
\abx@aux@fnpage{4}{5}
\BKM@entry{id=5,dest={73756273656374696F6E2E332E31},srcline={106}}{332E3120456E746974792D20756E642054696C6573797374656D}
\@writefile{toc}{\defcounter {refsection}{0}\relax }\@writefile{toc}{\contentsline {subsection}{\numberline {3.1}Entity- und Tilesystem}{6}{subsection.3.1}}
\@writefile{lof}{\defcounter {refsection}{0}\relax }\@writefile{lof}{\contentsline {figure}{\numberline {1}{\ignorespaces \relax \fontsize  {9}{11}\selectfont  \abovedisplayskip 8\p@ plus2\p@ minus4\p@ \abovedisplayshortskip \z@ plus\p@ \belowdisplayshortskip 4\p@ plus2\p@ minus2\p@ \def \leftmargin \leftmargini \parsep 4.5\p@ plus2\p@ minus\p@ \topsep 9\p@ plus3\p@ minus5\p@ \itemsep 4.5\p@ plus2\p@ minus\p@ {\leftmargin \leftmargini \topsep 4\p@ plus2\p@ minus2\p@ \parsep 2\p@ plus\p@ minus\p@ \itemsep \parsep }\belowdisplayskip \abovedisplayskip \add@extra@listi {ftns}{Spielszene aus Super Mario mit Tiles in Rot und Entities in Gr\IeC {\"u}n markiert}}}{6}{figure.1}}
\newlabel{fig:1}{{1}{6}{\footnotesize {Spielszene aus Super Mario mit Tiles in Rot und Entities in Grün markiert}}{figure.1}{}}
\BKM@entry{id=6,dest={73756273656374696F6E2E332E32},srcline={128}}{332E322053707269746573}
\BKM@entry{id=7,dest={73756273656374696F6E2E332E33},srcline={141}}{332E332052656E646572696E67206D6974203244204B616D65726173}
\@writefile{toc}{\defcounter {refsection}{0}\relax }\@writefile{toc}{\contentsline {subsection}{\numberline {3.2}Sprites}{8}{subsection.3.2}}
\@writefile{toc}{\defcounter {refsection}{0}\relax }\@writefile{toc}{\contentsline {subsection}{\numberline {3.3}Rendering mit 2D Kameras}{8}{subsection.3.3}}
\BKM@entry{id=8,dest={73756273656374696F6E2E332E34},srcline={150}}{332E3420416E696D6174696F6E656E}
\@writefile{toc}{\defcounter {refsection}{0}\relax }\@writefile{toc}{\contentsline {subsection}{\numberline {3.4}Animationen}{9}{subsection.3.4}}
\newlabel{lstng:animation}{{2}{9}{Überlagerung einer Property zur Animation}{lstlisting.2}{}}
\@writefile{lol}{\defcounter {refsection}{0}\relax }\@writefile{lol}{\contentsline {lstlisting}{\numberline {2}\IeC {\"U}berlagerung einer Property zur Animation}{9}{lstlisting.2}}
\newlabel{lstng:rotatingAnimation}{{3}{9}{Überlagerung der Rotation}{lstlisting.3}{}}
\@writefile{lol}{\defcounter {refsection}{0}\relax }\@writefile{lol}{\contentsline {lstlisting}{\numberline {3}\IeC {\"U}berlagerung der Rotation}{9}{lstlisting.3}}
\BKM@entry{id=9,dest={73756273656374696F6E2E332E35},srcline={179}}{332E35204B6F6C6C6973696F6E7365726B656E6E756E67}
\@writefile{toc}{\defcounter {refsection}{0}\relax }\@writefile{toc}{\contentsline {subsection}{\numberline {3.5}Kollisionserkennung}{10}{subsection.3.5}}
\newlabel{lstng:collision}{{4}{11}{Kollisionserkennung bei unrotierten Rechtecken}{lstlisting.4}{}}
\@writefile{lol}{\defcounter {refsection}{0}\relax }\@writefile{lol}{\contentsline {lstlisting}{\numberline {4}Kollisionserkennung bei unrotierten Rechtecken}{11}{lstlisting.4}}
\BKM@entry{id=10,dest={73756273656374696F6E2E332E36},srcline={195}}{332E362053706C617473}
\BKM@entry{id=11,dest={73656374696F6E2E34},srcline={199}}{34205A7573616D6D656E66617373756E67}
\@writefile{toc}{\defcounter {refsection}{0}\relax }\@writefile{toc}{\contentsline {subsection}{\numberline {3.6}Splats}{12}{subsection.3.6}}
\BKM@entry{id=12,dest={73656374696F6E2E35},srcline={203}}{3520416E68616E67}
\@writefile{toc}{\defcounter {refsection}{0}\relax }\@writefile{toc}{\contentsline {section}{\numberline {4}Zusammenfassung}{13}{section.4}}
\@writefile{toc}{\defcounter {refsection}{0}\relax }\@writefile{toc}{\contentsline {section}{\numberline {5}Anhang}{13}{section.5}}
\newlabel{lstng:entity}{{5}{13}{Codeausschnitt aus der Entity Klasse}{lstlisting.5}{}}
\@writefile{lol}{\defcounter {refsection}{0}\relax }\@writefile{lol}{\contentsline {lstlisting}{\numberline {5}Codeausschnitt aus der Entity Klasse}{13}{lstlisting.5}}
\newlabel{lstng:board}{{6}{15}{Board Klasse}{lstlisting.6}{}}
\@writefile{lol}{\defcounter {refsection}{0}\relax }\@writefile{lol}{\contentsline {lstlisting}{\numberline {6}Board Klasse}{15}{lstlisting.6}}
\newlabel{lstng:main}{{7}{16}{Renderlogik für Tiles innerhalb von EngineMain}{lstlisting.7}{}}
\@writefile{lol}{\defcounter {refsection}{0}\relax }\@writefile{lol}{\contentsline {lstlisting}{\numberline {7}Renderlogik f\IeC {\"u}r Tiles innerhalb von EngineMain}{16}{lstlisting.7}}
