This is BibTeX, Version 0.99dThe top-level auxiliary file: SeminararbeitEngine.aux
The style file: biblatex.bst
Database file #1: SeminararbeitEngine-blx.bib
Database file #2: literature.bib
Biblatex version: 3.3
